[
  {
    "model": "JailuApp.UserGroup",
    "pk": -1,
    "fields": {
      "name": "Super Administrator"
    }
  }
  ,{
    "model": "JailuApp.UserGroup",
    "pk": -2,
    "fields": {
      "name": "Anonymous"
    }
  }
  ,{
    "model": "JailuApp.UserGroup",
    "pk": 1,
    "fields": {
      "name": "Data Entry Agent"
    }
  }
  ,{
    "model": "JailuApp.UserGroup",
    "pk": 2,
    "fields": {
      "name": "Client User"
    }
  }
  ,{
    "model": "JailuApp.UserAccount",
    "pk": "1",
    "fields": {
      "first_name": "Software",
      "sur_name": "Developer",
      "user_name": "root",
      "password": "37e4392dad1ad3d86680a8c6b06ede92",
      "user_group_id_id": -1,
      "email": "kirondedshem@gmail.com",
      "entered_by": "1",
      "entry_date": "2020-02-14 14:18:44.273756",
      "modified_by": "1",
      "last_modified": "2020-02-14 14:18:44.273756"
    }
  }

]